<svg width="32" height="32" viewBox="0 0 32 32" fill="none" xmlns="http://www.w3.org/2000/svg">
<path d="M15.9999 2C13.231 2 10.5242 2.82109 8.22193 4.35943C5.91964 5.89777 4.12523 8.08427 3.0656 10.6424C2.00597 13.2006 1.72873 16.0155 2.26892 18.7313C2.80911 21.447 4.14248 23.9416 6.10042 25.8995C8.05835 27.8574 10.5529 29.1908 13.2686 29.731C15.9844 30.2712 18.7993 29.9939 21.3575 28.9343C23.9156 27.8747 26.1021 26.0803 27.6405 23.778C29.1788 21.4757 29.9999 18.7689 29.9999 16C29.9999 12.287 28.5249 8.72602 25.8994 6.10051C23.2739 3.475 19.7129 2 15.9999 2ZM15.9999 28C13.6265 28 11.3065 27.2962 9.33307 25.9776C7.35968 24.6591 5.82161 22.7849 4.91336 20.5922C4.00511 18.3995 3.76747 15.9867 4.23049 13.6589C4.69351 11.3311 5.8364 9.19295 7.51463 7.51472C9.19286 5.83649 11.3311 4.6936 13.6588 4.23058C15.9866 3.76755 18.3994 4.00519 20.5921 4.91345C22.7848 5.8217 24.659 7.35977 25.9775 9.33316C27.2961 11.3065 27.9999 13.6266 27.9999 16C27.9999 19.1826 26.7356 22.2348 24.4852 24.4853C22.2348 26.7357 19.1825 28 15.9999 28Z" fill="#8E54E9"/>
<path d="M15 13H17V23H15V13Z" fill="#8E54E9"/>
<path d="M15 9H17V11H15V9Z" fill="#8E54E9"/>
</svg>
