<svg width="30" height="30" viewBox="0 0 30 30" fill="none" xmlns="http://www.w3.org/2000/svg">
<path fill-rule="evenodd" clip-rule="evenodd" d="M15 28.5C22.4558 28.5 28.5 22.456 28.5 15C28.5 7.54416 22.456 1.49997 15 1.49997C7.54416 1.49997 1.49997 7.54416 1.49997 15C1.49997 22.4558 7.54416 28.5 15 28.5ZM15 30C23.2842 30 30 23.2842 30 15C30 6.71567 23.2842 0 15 0C6.71567 0 0 6.71567 0 15C0 23.2842 6.71567 30 15 30Z" fill="#008DE4"/>
<path fill-rule="evenodd" clip-rule="evenodd" d="M20.9999 15C20.9999 15.4141 20.664 15.75 20.2499 15.75H9.7498C9.33555 15.75 8.99982 15.4141 8.99982 15C8.99982 14.5859 9.33555 14.25 9.7498 14.25H20.2497C20.664 14.25 20.9999 14.5859 20.9999 15Z" fill="#008DE4"/>
<path fill-rule="evenodd" clip-rule="evenodd" d="M14.9998 21C14.5857 21 14.2498 20.6641 14.2498 20.2501V9.74997C14.2498 9.33572 14.5857 8.99998 14.9998 8.99998C15.4139 8.99998 15.7498 9.33572 15.7498 9.74997V20.2499C15.7498 20.6641 15.4139 21 14.9998 21Z" fill="#008DE4"/>
</svg>
