<svg width="103" height="130" viewBox="0 0 103 130" fill="none" xmlns="http://www.w3.org/2000/svg">
<path d="M102.732 52.2628C104.868 38.5976 93.9647 31.2558 79.0475 26.3613L83.8878 7.85913L72.0712 5.05054L67.36 23.0682C64.2594 22.3291 61.0727 21.6311 57.9032 20.9413L62.6489 2.80859L50.8408 0L46.0005 18.494C43.4339 17.9356 40.9104 17.3853 38.4558 16.8023L38.473 16.7448L22.1863 12.8686L19.0341 24.8996C19.0341 24.8996 27.8018 26.813 27.6123 26.9362C32.3924 28.0777 33.2623 31.0916 33.1159 33.4896L19.8609 84.1756C19.2752 85.5635 17.7939 87.6412 14.4435 86.8528C14.5641 87.0171 5.85664 84.808 5.85664 84.808L0 97.7012L15.3737 101.356C18.2331 102.037 21.0322 102.752 23.7883 103.425L18.8963 122.141L30.6957 124.949L35.536 106.431C38.7572 107.268 41.8836 108.032 44.9497 108.763L40.1266 127.191L51.9346 130L56.8267 111.317C76.9718 114.955 92.1215 113.485 98.4863 96.1162C103.62 82.1308 98.2366 74.0581 87.6343 68.7941C95.3599 67.1023 101.174 62.2571 102.732 52.2628ZM75.7402 88.3474C72.0884 102.333 47.3957 94.7776 39.3859 92.8806L45.8627 68.0796C53.8725 69.9848 79.547 73.7625 75.7402 88.3474ZM79.392 52.0575C76.0588 64.7783 55.5089 58.3152 48.8341 56.7303L54.7079 34.2451C61.3828 35.8301 82.8629 38.7865 79.392 52.0575Z" fill="white" fill-opacity="0.1"/>
</svg>
