<svg width="319" height="258" viewBox="0 0 319 258" fill="none" xmlns="http://www.w3.org/2000/svg">
<g clip-path="url(#clip0)">
<path opacity="0.4" d="M303.073 187.176C311.869 187.176 319 180.05 319 171.26C319 162.47 311.869 155.344 303.073 155.344C294.277 155.344 287.146 162.47 287.146 171.26C287.146 180.05 294.277 187.176 303.073 187.176Z" fill="#E5E5FF"/>
<path opacity="0.4" d="M40.985 84.444C54.4085 84.444 65.2903 73.5693 65.2903 60.1546C65.2903 46.74 54.4085 35.8652 40.985 35.8652C27.5615 35.8652 16.6797 46.74 16.6797 60.1546C16.6797 73.5693 27.5615 84.444 40.985 84.444Z" fill="#E5E5FF"/>
<path opacity="0.4" d="M125.04 36.8295C132.035 36.8295 137.704 31.1632 137.704 24.1735C137.704 17.1838 132.035 11.5176 125.04 11.5176C118.046 11.5176 112.376 17.1838 112.376 24.1735C112.376 31.1632 118.046 36.8295 125.04 36.8295Z" fill="#E5E5FF"/>
<path d="M106.893 30.4242C106.102 30.4242 105.31 30.3663 104.538 30.2313L104.615 29.749C105.368 29.8647 106.141 29.9226 106.893 29.9226H106.99V30.4049L106.893 30.4242ZM109.422 30.212L109.345 29.7297C110.117 29.5946 110.89 29.4017 111.643 29.1509L111.797 29.6139C111.025 29.8647 110.233 30.0769 109.422 30.212ZM102.164 29.6718C101.391 29.421 100.619 29.093 99.905 28.7265L100.117 28.302C100.812 28.6686 101.546 28.9773 102.299 29.2088L102.164 29.6718ZM114.056 28.63L113.824 28.2056C114.519 27.839 115.195 27.4146 115.832 26.9322L116.121 27.3181C115.465 27.8004 114.77 28.2441 114.056 28.63ZM97.82 27.4338C97.1636 26.9515 96.5459 26.4113 95.9667 25.8326L96.3142 25.5046C96.874 26.0641 97.4725 26.585 98.1096 27.0673L97.82 27.4338ZM117.936 25.6782L117.589 25.3502C118.129 24.7715 118.631 24.1541 119.075 23.4982L119.481 23.7683C119.017 24.4628 118.496 25.0994 117.936 25.6782ZM94.4223 23.9419C93.959 23.2666 93.5342 22.5721 93.1867 21.839L93.6308 21.6268C93.9783 22.3406 94.3837 23.0351 94.8277 23.6718L94.4223 23.9419ZM120.697 21.6461L120.253 21.4338C120.581 20.72 120.871 19.9676 121.083 19.2152L121.546 19.3502C121.334 20.1412 121.044 20.9129 120.697 21.6461ZM92.2987 19.5432C92.067 18.7522 91.8933 17.9612 91.7775 17.1509L92.2601 17.093C92.3566 17.8647 92.5304 18.6557 92.762 19.4081L92.2987 19.5432ZM122.029 16.958L121.546 16.9001C121.604 16.3406 121.643 15.7618 121.643 15.183C121.643 14.9708 121.643 14.7393 121.623 14.5271L122.106 14.5078C122.125 14.7393 122.125 14.9515 122.125 15.183C122.145 15.7811 122.106 16.3792 122.029 16.958ZM92.1443 14.72L91.6616 14.7007C91.6809 13.8904 91.7775 13.0609 91.9319 12.2699L92.4145 12.3663C92.2601 13.138 92.1636 13.929 92.1443 14.72ZM121.334 12.1927C121.179 11.421 120.948 10.6493 120.658 9.91616L121.102 9.74253C121.392 10.5142 121.623 11.3052 121.797 12.0962L121.334 12.1927ZM93.0516 10.0898L92.6076 9.91616C92.8972 9.14446 93.2447 8.41134 93.6308 7.69751L94.0555 7.92902C93.6694 8.62356 93.3219 9.33738 93.0516 10.0898ZM120.62 9.8004C120.33 9.06729 119.982 8.35346 119.577 7.67822L120.002 7.42741C120.407 8.12195 120.774 8.87436 121.083 9.62677L120.62 9.8004ZM95.3875 5.96118L95.0014 5.65249C95.5034 5.01584 96.0825 4.41777 96.681 3.87758L97.0092 4.24413C96.43 4.76504 95.8702 5.34381 95.3875 5.96118ZM118.226 5.72967C117.724 5.1316 117.164 4.55282 116.565 4.03192L116.874 3.66536C117.492 4.20555 118.071 4.78433 118.592 5.40169L118.226 5.72967ZM98.8818 2.79719L98.6115 2.39204C99.2872 1.94831 100.021 1.56246 100.774 1.23449L100.967 1.67822C100.252 2.00619 99.5575 2.37275 98.8818 2.79719ZM114.654 2.64285C113.979 2.2377 113.264 1.87114 112.55 1.56246L112.743 1.11873C113.496 1.42741 114.229 1.81327 114.924 2.2377L114.654 2.64285ZM103.225 0.906514L103.11 0.443491C103.901 0.231273 104.712 0.0962244 105.523 0.019054L105.561 0.501369C104.77 0.578539 103.998 0.713588 103.225 0.906514ZM110.272 0.829343C109.5 0.65571 108.708 0.520662 107.936 0.462784L107.975 -0.0195312C108.785 0.0383466 109.596 0.154102 110.388 0.347028L110.272 0.829343Z" fill="#AAA4FC"/>
<path d="M258.942 198.985V198.503C259.733 198.483 260.544 198.464 261.336 198.406L261.374 198.888C260.563 198.927 259.753 198.966 258.942 198.985ZM256.529 198.966C255.718 198.946 254.907 198.908 254.116 198.831L254.154 198.348C254.946 198.406 255.756 198.445 256.548 198.464L256.529 198.966ZM263.787 198.676L263.73 198.194C264.521 198.097 265.332 198.001 266.104 197.866L266.181 198.348C265.39 198.483 264.579 198.58 263.787 198.676ZM251.683 198.599C250.892 198.503 250.081 198.387 249.289 198.252L249.366 197.769C250.158 197.904 250.949 198.02 251.741 198.117L251.683 198.599ZM268.575 197.904L268.479 197.441C269.27 197.287 270.042 197.094 270.815 196.901L270.93 197.364C270.158 197.557 269.367 197.75 268.575 197.904ZM246.915 197.789C246.123 197.615 245.332 197.422 244.559 197.21L244.695 196.747C245.467 196.959 246.239 197.152 247.03 197.326L246.915 197.789ZM273.266 196.708L273.131 196.245C273.884 196.014 274.656 195.763 275.409 195.474L275.583 195.937C274.811 196.207 274.039 196.458 273.266 196.708ZM242.243 196.515C241.471 196.265 240.698 195.994 239.945 195.724L240.119 195.281C240.872 195.57 241.625 195.821 242.397 196.072L242.243 196.515ZM277.803 195.049L277.61 194.605C278.344 194.297 279.077 193.969 279.791 193.641L280.004 194.085C279.29 194.413 278.556 194.76 277.803 195.049ZM237.687 194.818C236.953 194.49 236.2 194.162 235.486 193.814L235.698 193.39C236.413 193.737 237.146 194.085 237.88 194.393L237.687 194.818ZM282.185 192.985L281.954 192.56C282.649 192.194 283.363 191.789 284.039 191.384L284.29 191.808C283.595 192.213 282.9 192.618 282.185 192.985ZM233.324 192.695C232.609 192.31 231.914 191.904 231.219 191.48L231.47 191.075C232.146 191.499 232.86 191.904 233.555 192.271L233.324 192.695ZM286.336 190.515L286.066 190.11C286.741 189.667 287.398 189.204 288.035 188.74L288.324 189.126C287.687 189.609 287.012 190.072 286.336 190.515ZM229.192 190.168C228.536 189.724 227.86 189.242 227.223 188.76L227.513 188.374C228.15 188.856 228.806 189.319 229.463 189.763L229.192 190.168ZM290.255 187.679L289.946 187.313C290.564 186.811 291.182 186.29 291.78 185.769L292.108 186.136C291.51 186.638 290.892 187.178 290.255 187.679ZM225.312 187.255C224.694 186.734 224.077 186.213 223.478 185.673L223.806 185.306C224.405 185.847 225.003 186.367 225.621 186.869L225.312 187.255ZM293.884 184.477L293.556 184.13C294.135 183.57 294.695 182.991 295.236 182.413L295.583 182.74C295.043 183.319 294.463 183.898 293.884 184.477ZM221.721 183.995C221.142 183.435 220.582 182.837 220.042 182.239L220.389 181.911C220.93 182.49 221.49 183.088 222.049 183.647L221.721 183.995ZM297.205 180.927L296.838 180.618C297.359 180.02 297.861 179.384 298.363 178.766L298.749 179.056C298.247 179.692 297.726 180.329 297.205 180.927ZM218.439 180.425C217.918 179.808 217.416 179.171 216.934 178.535L217.32 178.245C217.802 178.882 218.304 179.519 218.806 180.117L218.439 180.425ZM300.178 177.107L299.792 176.837C300.255 176.181 300.699 175.506 301.124 174.85L301.529 175.101C301.104 175.776 300.641 176.451 300.178 177.107ZM215.524 176.567C215.061 175.911 214.617 175.216 214.212 174.541L214.617 174.29C215.042 174.966 215.466 175.641 215.93 176.297L215.524 176.567ZM302.784 173.017L302.359 172.785C302.745 172.091 303.132 171.377 303.498 170.663L303.923 170.876C303.576 171.609 303.17 172.322 302.784 173.017ZM212.976 172.458C212.59 171.763 212.204 171.03 211.856 170.316L212.281 170.104C212.629 170.818 213.015 171.531 213.401 172.226L212.976 172.458ZM304.985 168.695L304.541 168.503C304.869 167.769 305.178 167.036 305.487 166.284L305.931 166.458C305.641 167.21 305.313 167.962 304.985 168.695ZM210.833 168.117C210.505 167.384 210.196 166.631 209.926 165.879L210.37 165.705C210.659 166.438 210.949 167.191 211.277 167.924L210.833 168.117ZM306.78 164.181L306.317 164.027C306.568 163.274 306.819 162.503 307.031 161.731L307.495 161.866C307.282 162.638 307.031 163.429 306.78 164.181ZM209.115 163.602C208.864 162.831 208.632 162.059 208.42 161.287L208.883 161.152C209.096 161.924 209.327 162.695 209.578 163.448L209.115 163.602ZM308.112 159.531L307.649 159.416C307.842 158.644 307.996 157.853 308.151 157.062L308.634 157.158C308.479 157.949 308.305 158.76 308.112 159.531ZM207.822 158.933C207.648 158.162 207.474 157.351 207.339 156.56L207.822 156.483C207.957 157.274 208.13 158.065 208.304 158.837L207.822 158.933ZM309.02 154.766L308.537 154.708C308.653 153.917 308.749 153.126 308.807 152.316L309.29 152.355C309.232 153.165 309.135 153.975 309.02 154.766ZM206.972 154.168C206.876 153.377 206.779 152.567 206.721 151.757L207.204 151.718C207.262 152.509 207.358 153.319 207.455 154.11L206.972 154.168ZM309.464 149.943L308.981 149.924C309.02 149.133 309.039 148.322 309.039 147.531H309.522C309.522 148.342 309.502 149.152 309.464 149.943ZM206.586 149.345C206.567 148.747 206.547 148.13 206.547 147.531C206.547 147.319 206.547 147.126 206.547 146.914H207.03C207.03 147.107 207.03 147.319 207.03 147.512C207.03 148.11 207.049 148.708 207.069 149.306L206.586 149.345ZM309.039 146.355C309.02 145.564 308.981 144.753 308.923 143.962L309.406 143.924C309.464 144.715 309.502 145.544 309.522 146.335L309.039 146.355ZM207.107 144.522L206.625 144.503C206.663 143.692 206.74 142.882 206.818 142.091L207.3 142.149C207.223 142.921 207.165 143.731 207.107 144.522ZM308.691 141.551C308.595 140.76 308.479 139.969 308.363 139.178L308.846 139.101C308.981 139.892 309.097 140.702 309.174 141.493L308.691 141.551ZM207.609 139.757L207.127 139.679C207.242 138.888 207.397 138.078 207.551 137.287L208.034 137.384C207.879 138.175 207.744 138.966 207.609 139.757ZM307.919 136.824C307.745 136.052 307.572 135.261 307.359 134.49L307.823 134.374C308.035 135.146 308.209 135.937 308.383 136.728L307.919 136.824ZM208.574 135.049L208.111 134.933C208.304 134.162 208.516 133.371 208.767 132.599L209.231 132.734C208.98 133.506 208.767 134.277 208.574 135.049ZM306.703 132.194C306.471 131.441 306.201 130.67 305.931 129.917L306.375 129.744C306.645 130.496 306.915 131.268 307.166 132.04L306.703 132.194ZM209.964 130.458L209.501 130.303C209.771 129.551 210.061 128.779 210.37 128.027L210.814 128.2C210.524 128.953 210.235 129.705 209.964 130.458ZM305.043 127.699C304.734 126.966 304.406 126.232 304.058 125.519L304.502 125.306C304.85 126.04 305.178 126.773 305.506 127.506L305.043 127.699ZM211.779 126.001L211.335 125.789C211.683 125.056 212.03 124.322 212.416 123.609L212.841 123.84C212.474 124.573 212.127 125.287 211.779 126.001ZM302.958 123.377C302.591 122.683 302.186 121.988 301.78 121.294L302.186 121.043C302.61 121.737 302.996 122.432 303.382 123.146L302.958 123.377ZM214.018 121.757L213.594 121.506C213.999 120.811 214.424 120.117 214.868 119.441L215.273 119.712C214.849 120.387 214.424 121.062 214.018 121.757ZM300.487 119.268C300.043 118.612 299.579 117.956 299.116 117.3L299.502 117.011C299.985 117.667 300.448 118.322 300.892 118.998L300.487 119.268ZM216.644 117.744L216.258 117.454C216.721 116.798 217.223 116.162 217.725 115.525L218.111 115.834C217.59 116.451 217.107 117.088 216.644 117.744ZM297.649 115.409C297.147 114.792 296.626 114.175 296.085 113.577L296.452 113.249C296.992 113.847 297.514 114.464 298.016 115.101L297.649 115.409ZM219.636 113.982L219.27 113.673C219.791 113.075 220.351 112.458 220.91 111.879L221.258 112.207C220.698 112.786 220.158 113.384 219.636 113.982ZM294.444 111.84C293.884 111.261 293.305 110.702 292.726 110.162L293.054 109.814C293.633 110.355 294.232 110.933 294.792 111.512L294.444 111.84ZM222.957 110.528L222.629 110.181C223.208 109.622 223.826 109.081 224.424 108.56L224.733 108.927C224.134 109.429 223.536 109.969 222.957 110.528ZM290.931 108.56C290.332 108.04 289.695 107.538 289.058 107.056L289.348 106.67C289.985 107.152 290.622 107.673 291.239 108.194L290.931 108.56ZM226.606 107.384L226.316 106.998C226.953 106.496 227.609 106.014 228.266 105.551L228.536 105.937C227.86 106.419 227.223 106.901 226.606 107.384ZM287.127 105.647C286.471 105.184 285.795 104.741 285.12 104.316L285.371 103.911C286.046 104.335 286.741 104.779 287.398 105.242L287.127 105.647ZM230.505 104.605L230.235 104.2C230.911 103.757 231.606 103.351 232.301 102.946L232.552 103.371C231.857 103.757 231.181 104.181 230.505 104.605ZM283.054 103.101C282.359 102.715 281.645 102.329 280.93 101.962L281.143 101.538C281.857 101.904 282.591 102.29 283.286 102.676L283.054 103.101ZM234.656 102.213L234.443 101.789C235.158 101.422 235.891 101.056 236.625 100.728L236.818 101.171C236.084 101.499 235.37 101.847 234.656 102.213ZM278.749 100.94C278.015 100.612 277.282 100.303 276.529 100.014L276.703 99.5701C277.456 99.8595 278.208 100.168 278.942 100.496L278.749 100.94ZM239.019 100.226L238.845 99.7823C239.598 99.4736 240.351 99.2035 241.123 98.9334L241.278 99.3965C240.505 99.6473 239.752 99.9174 239.019 100.226ZM274.27 99.1842C273.517 98.9334 272.745 98.7019 271.973 98.4704L272.108 98.0074C272.88 98.2196 273.652 98.4704 274.425 98.7212L274.27 99.1842ZM243.536 98.644L243.401 98.181C244.173 97.9495 244.965 97.7373 245.737 97.5444L245.853 98.0074C245.081 98.2003 244.308 98.4125 243.536 98.644ZM269.656 97.8916C268.884 97.718 268.092 97.5444 267.301 97.4093L267.398 96.927C268.189 97.0813 268.981 97.2357 269.772 97.4286L269.656 97.8916ZM248.208 97.5058L248.112 97.0235C248.903 96.8691 249.714 96.7341 250.505 96.6183L250.583 97.1006C249.791 97.2164 248.98 97.3514 248.208 97.5058ZM264.926 97.0235C264.135 96.9077 263.343 96.8305 262.533 96.7534L262.571 96.2711C263.382 96.3482 264.174 96.4254 264.984 96.5411L264.926 97.0235ZM252.957 96.8112L252.919 96.3289C253.71 96.2518 254.521 96.1939 255.332 96.1553L255.351 96.6376C254.56 96.6569 253.749 96.7341 252.957 96.8112ZM260.158 96.599C259.463 96.5797 258.749 96.5604 258.034 96.5604C257.938 96.5604 257.841 96.5604 257.745 96.5604V96.0781C257.841 96.0781 257.938 96.0781 258.034 96.0781C258.749 96.0781 259.463 96.0974 260.177 96.1167L260.158 96.599Z" fill="#AAA4FC"/>
<path d="M49.132 142.552C48.3212 142.552 47.5103 142.514 46.6995 142.456L46.7381 141.974C47.5297 142.032 48.3405 142.07 49.132 142.07V142.552ZM51.5645 142.495L51.5258 142.012C52.3174 141.954 53.1282 141.877 53.9004 141.781L53.9583 142.263C53.1861 142.36 52.3753 142.437 51.5645 142.495ZM44.2864 142.186C43.4949 142.07 42.684 141.916 41.8925 141.742L41.989 141.279C42.7613 141.453 43.5528 141.607 44.3443 141.723L44.2864 142.186ZM56.3715 141.819L56.2749 141.356C57.0471 141.202 57.8387 140.99 58.5916 140.778L58.7267 141.241C57.9545 141.472 57.163 141.665 56.3715 141.819ZM39.5566 141.125C38.7844 140.893 38.0122 140.623 37.2593 140.334L37.433 139.89C38.1859 140.179 38.9388 140.43 39.711 140.662L39.5566 141.125ZM61.0433 140.488L60.8696 140.044C61.6225 139.774 62.3561 139.466 63.0897 139.138L63.2827 139.581C62.5491 139.89 61.7962 140.199 61.0433 140.488ZM35.0199 139.388C34.2863 139.041 33.5527 138.675 32.8577 138.289L33.0893 137.864C33.7843 138.25 34.4986 138.617 35.2322 138.964L35.0199 139.388ZM65.4642 138.482L65.2326 138.057C65.9276 137.671 66.6225 137.266 67.2982 136.842L67.5492 137.247C66.8735 137.691 66.1592 138.096 65.4642 138.482ZM30.7727 137.035C30.097 136.591 29.4406 136.128 28.7843 135.626L29.0738 135.241C29.7109 135.723 30.3673 136.186 31.0237 136.63L30.7727 137.035ZM69.5569 135.877L69.2674 135.491C69.9044 135.009 70.5415 134.507 71.14 133.987L71.4489 134.353C70.8311 134.893 70.194 135.395 69.5569 135.877ZM26.9117 134.083C26.3132 133.543 25.7147 132.983 25.1549 132.405L25.5024 132.057C26.0622 132.617 26.6414 133.176 27.2398 133.697L26.9117 134.083ZM73.2249 132.713L72.8774 132.366C73.4373 131.807 73.9971 131.228 74.5184 130.61L74.8852 130.919C74.3639 131.556 73.8041 132.154 73.2249 132.713ZM23.5139 130.63C22.9927 130.012 22.4908 129.376 22.0081 128.72L22.3942 128.43C22.8576 129.067 23.3595 129.704 23.8807 130.302L23.5139 130.63ZM76.4103 129.048L76.0242 128.758C76.5068 128.122 76.9702 127.466 77.3949 126.79L77.8003 127.061C77.3756 127.736 76.9122 128.411 76.4103 129.048ZM20.6374 126.713C20.2127 126.038 19.788 125.324 19.4212 124.61L19.8459 124.379C20.2127 125.073 20.6181 125.768 21.0429 126.443L20.6374 126.713ZM79.0551 124.977L78.6304 124.745C79.0165 124.051 79.3833 123.337 79.7115 122.604L80.1555 122.797C79.808 123.549 79.4412 124.263 79.0551 124.977ZM18.3401 122.45C18.0119 121.716 17.7031 120.964 17.4328 120.192L17.8961 120.038C18.1664 120.79 18.4753 121.524 18.7841 122.257L18.3401 122.45ZM81.0822 120.559L80.6382 120.385C80.9084 119.633 81.1787 118.88 81.3911 118.109L81.8544 118.244C81.6227 119.035 81.3717 119.807 81.0822 120.559ZM16.6992 117.877C16.4868 117.106 16.2938 116.315 16.12 115.524L16.5833 115.427C16.7378 116.199 16.9308 116.99 17.1432 117.761L16.6992 117.877ZM82.4528 115.909L81.9895 115.813C82.1633 115.041 82.2984 114.25 82.4142 113.459L82.8969 113.536C82.781 114.327 82.6266 115.118 82.4528 115.909ZM15.7146 113.131C15.6181 112.34 15.5409 111.53 15.4829 110.72L15.9656 110.7C16.0042 111.491 16.0814 112.302 16.1972 113.073L15.7146 113.131ZM83.1478 111.106L82.6652 111.067C82.7231 110.276 82.7424 109.466 82.7424 108.675H83.2251C83.2251 109.485 83.2057 110.315 83.1478 111.106ZM15.927 108.289H15.4443C15.4443 107.479 15.4829 106.668 15.5602 105.858L16.0428 105.897C15.9656 106.688 15.927 107.498 15.927 108.289ZM82.7038 107.073C82.6652 106.282 82.6073 105.472 82.5108 104.681L82.9934 104.623C83.0899 105.414 83.1478 106.244 83.1864 107.035L82.7038 107.073ZM16.3131 103.524L15.8304 103.446C15.9463 102.655 16.1007 101.845 16.2938 101.054L16.7571 101.17C16.5833 101.942 16.4289 102.733 16.3131 103.524ZM82.144 102.327C81.9895 101.556 81.8158 100.765 81.6034 99.993L82.0667 99.8773C82.2791 100.649 82.4528 101.459 82.6073 102.25L82.144 102.327ZM17.3749 98.8547L16.9115 98.7197C17.1432 97.948 17.4135 97.1763 17.703 96.4239L18.1471 96.5975C17.8768 97.3306 17.6258 98.1023 17.3749 98.8547ZM80.9084 97.7165C80.6382 96.9641 80.3486 96.2117 80.0397 95.4978L80.4837 95.3049C80.8119 96.038 81.1015 96.8097 81.3717 97.5621L80.9084 97.7165ZM19.1123 94.3982L18.6683 94.1859C19.0158 93.4528 19.3826 92.739 19.788 92.0252L20.2127 92.2567C19.8266 92.9705 19.4598 93.6843 19.1123 94.3982ZM79.0165 93.3178C78.6497 92.6039 78.2636 91.9094 77.8389 91.2342L78.2443 90.9834C78.669 91.6779 79.0744 92.3724 79.4412 93.0863L79.0165 93.3178ZM21.4676 90.231L21.0622 89.9609C21.5062 89.2856 21.9888 88.6297 22.4714 87.993L22.8576 88.2824C22.3749 88.9191 21.9116 89.575 21.4676 90.231ZM76.5068 89.247C76.0435 88.6104 75.5416 87.9737 75.0396 87.3564L75.4064 87.0477C75.9277 87.665 76.4296 88.321 76.8929 88.9769L76.5068 89.247ZM24.402 86.4496L24.0352 86.1216C24.5757 85.5236 25.1356 84.9255 25.7147 84.366L26.0429 84.7133C25.4831 85.2728 24.9232 85.8515 24.402 86.4496ZM73.4566 85.5621C72.8967 84.9834 72.3369 84.4239 71.7384 83.903L72.0666 83.5364C72.6651 84.0766 73.2442 84.6554 73.8041 85.2342L73.4566 85.5621ZM27.8383 83.112L27.5294 82.7454C28.1472 82.2245 28.7843 81.7229 29.4406 81.2599L29.7302 81.6457C29.0738 82.1088 28.4368 82.6104 27.8383 83.112ZM69.9044 82.3596C69.2867 81.8773 68.6303 81.3949 67.9739 80.9512L68.2442 80.5461C68.9199 80.9898 69.5762 81.4721 70.2133 81.9737L69.9044 82.3596ZM31.7187 80.2953L31.4677 79.8901C32.1434 79.4657 32.8577 79.0605 33.572 78.6747L33.8036 79.0991C33.0893 79.485 32.375 79.8901 31.7187 80.2953ZM65.9276 79.6972C65.2326 79.292 64.5183 78.9255 63.804 78.5782L64.0163 78.1345C64.7499 78.4818 65.4642 78.8676 66.1592 79.2728L65.9276 79.6972ZM35.9465 78.0766L35.7535 77.6329C36.4871 77.3049 37.2593 77.0155 38.0122 76.7454L38.1666 77.2085C37.4137 77.4593 36.6608 77.7679 35.9465 78.0766ZM61.6032 77.6136C60.8696 77.3242 60.0974 77.0541 59.3445 76.8226L59.4796 76.3596C60.2518 76.6104 61.024 76.8805 61.7769 77.1699L61.6032 77.6136ZM40.4446 76.4753L40.3095 76.0123C41.0817 75.8001 41.8732 75.6072 42.6647 75.4528L42.7613 75.9351C41.989 76.0895 41.2168 76.2631 40.4446 76.4753ZM57.0471 76.1859C56.2749 76.0123 55.4834 75.8387 54.6919 75.7229L54.7691 75.2406C55.5606 75.3757 56.3715 75.53 57.1437 75.7036L57.0471 76.1859ZM45.1358 75.5493L45.0779 75.067C45.8694 74.9705 46.6995 74.8933 47.491 74.8548L47.5103 75.3371C46.7381 75.3757 45.9273 75.4528 45.1358 75.5493ZM52.3174 75.4142C51.5258 75.3371 50.715 75.2985 49.9235 75.2792V74.7969C50.7343 74.8162 51.5451 74.8547 52.356 74.9319L52.3174 75.4142Z" fill="#AAA4FC"/>
<path d="M185.06 27.4724C180.562 27.4724 176.914 23.8261 176.914 19.3309C176.914 14.8358 180.562 11.1895 185.06 11.1895C189.559 11.1895 193.207 14.8358 193.207 19.3309C193.207 23.8261 189.559 27.4724 185.06 27.4724ZM185.06 11.556C180.775 11.556 177.28 15.048 177.28 19.3309C177.28 23.6139 180.775 27.1059 185.06 27.1059C189.346 27.1059 192.84 23.6139 192.84 19.3309C192.86 15.048 189.365 11.556 185.06 11.556Z" fill="#AAA4FC"/>
<path d="M269.81 56.6835V203.346C269.81 206.394 267.339 208.864 264.289 208.864H51.0045C47.9542 208.864 45.4639 206.394 45.4639 203.346V56.6835C45.4639 53.6352 47.9349 51.1465 51.0045 51.1465H264.27C267.32 51.1658 269.81 53.6352 269.81 56.6835Z" fill="white"/>
<path d="M264.27 209.113H51.0047C47.8193 209.113 45.2324 206.528 45.2324 203.345V56.6825C45.2324 53.4993 47.8193 50.9141 51.0047 50.9141H264.27C267.455 50.9141 270.042 53.4993 270.042 56.6825V203.345C270.042 206.528 267.455 209.113 264.27 209.113ZM51.0047 51.3964C48.0896 51.3964 45.7151 53.7694 45.7151 56.6825V203.345C45.7151 206.258 48.0896 208.631 51.0047 208.631H264.27C267.185 208.631 269.559 206.258 269.559 203.345V56.6825C269.559 53.7694 267.185 51.3964 264.27 51.3964H51.0047Z" fill="#AAA4FC"/>
<path d="M269.81 56.6835V65.3844H45.4834V56.6835C45.4834 53.6352 47.9545 51.1465 51.024 51.1465H264.289C267.32 51.1658 269.81 53.6352 269.81 56.6835Z" fill="white"/>
<path d="M270.042 65.6343H45.2324V56.6826C45.2324 53.4993 47.8193 50.9141 51.0047 50.9141H264.27C267.455 50.9141 270.042 53.4993 270.042 56.6826V65.6343ZM45.7151 65.152H269.559V56.6826C269.559 53.7694 267.185 51.3964 264.27 51.3964H51.0047C48.0896 51.3964 45.7151 53.7694 45.7151 56.6826V65.152Z" fill="#AAA4FC"/>
<path d="M57.9353 60.8486C59.3533 60.8486 60.5029 59.6998 60.5029 58.2827C60.5029 56.8656 59.3533 55.7168 57.9353 55.7168C56.5172 55.7168 55.3677 56.8656 55.3677 58.2827C55.3677 59.6998 56.5172 60.8486 57.9353 60.8486Z" fill="#3335CF"/>
<path d="M67.7424 55.6973C66.3138 55.6973 65.1748 56.8548 65.1748 58.2632C65.1748 59.6908 66.3331 60.8291 67.7424 60.8291C69.171 60.8291 70.31 59.6715 70.31 58.2632C70.3293 56.8548 69.171 55.6973 67.7424 55.6973Z" fill="#3335CF"/>
<path d="M77.5686 60.8486C76.14 60.8486 75.001 59.6911 75.001 58.2827C75.001 56.8551 76.1593 55.7168 77.5686 55.7168C78.9972 55.7168 80.1362 56.8744 80.1362 58.2827C80.1362 59.6911 78.9779 60.8486 77.5686 60.8486ZM77.5686 56.1798C76.4103 56.1798 75.4836 57.1252 75.4836 58.2634C75.4836 59.421 76.4296 60.347 77.5686 60.347C78.7269 60.347 79.6535 59.4017 79.6535 58.2634C79.6535 57.1252 78.7076 56.1798 77.5686 56.1798Z" fill="#AAA4FC"/>
<path d="M140.89 61.1383H93.0515C91.4685 61.1383 90.1943 59.8457 90.1943 58.283C90.1943 56.701 91.4878 55.4277 93.0515 55.4277H140.89C142.473 55.4277 143.747 56.7203 143.747 58.283C143.766 59.8457 142.473 61.1383 140.89 61.1383ZM93.0515 55.8908C91.7388 55.8908 90.677 56.9519 90.677 58.2637C90.677 59.5756 91.7388 60.6367 93.0515 60.6367H140.89C142.203 60.6367 143.264 59.5756 143.264 58.2637C143.264 56.9519 142.203 55.8908 140.89 55.8908H93.0515Z" fill="#AAA4FC"/>
<path d="M201.74 133.64C201.74 156.733 183.014 175.466 159.906 175.466C136.797 175.466 118.052 156.752 118.052 133.64C118.052 111.974 134.538 94.1671 155.658 92.0449L157.048 105.762C142.898 107.17 131.855 119.112 131.855 133.64C131.855 149.112 144.403 161.672 159.886 161.672C175.369 161.672 187.917 149.132 187.917 133.64C187.917 130.939 187.531 128.334 186.817 125.865L200.08 122.045C201.161 125.71 201.74 129.608 201.74 133.64Z" fill="#AAA4FC"/>
<path d="M159.886 167.403C178.545 167.403 193.67 152.287 193.67 133.641C193.67 114.995 178.545 99.8789 159.886 99.8789C141.228 99.8789 126.102 114.995 126.102 133.641C126.102 152.287 141.228 167.403 159.886 167.403Z" fill="white"/>
<path opacity="0.5" d="M159.886 167.403C178.545 167.403 193.67 152.287 193.67 133.641C193.67 114.995 178.545 99.8789 159.886 99.8789C141.228 99.8789 126.102 114.995 126.102 133.641C126.102 152.287 141.228 167.403 159.886 167.403Z" fill="#D1D1FF"/>
<path d="M159.886 157.562C173.107 157.562 183.825 146.852 183.825 133.64C183.825 120.427 173.107 109.717 159.886 109.717C146.665 109.717 135.948 120.427 135.948 133.64C135.948 146.852 146.665 157.562 159.886 157.562Z" fill="white"/>
<path d="M162.628 145.408V149.035H158.014V145.562C154.732 145.37 151.566 144.482 149.597 143.267L152.087 137.633C154.249 138.907 157.126 139.736 159.655 139.736C161.856 139.736 162.647 139.273 162.647 138.482C162.647 135.607 149.963 137.923 149.963 129.376C149.963 125.672 152.647 122.566 158.033 121.813V118.244H162.647V121.736C165.08 121.968 167.435 122.585 169.307 123.646L166.971 129.241C164.713 128.103 162.57 127.543 160.581 127.543C158.323 127.543 157.589 128.199 157.589 128.99C157.589 131.749 170.273 129.453 170.273 137.903C170.253 141.434 167.705 144.521 162.628 145.408Z" fill="#AAA4FC"/>
<path d="M308.846 22.5527H217.821V78.1733H308.846V22.5527Z" fill="white"/>
<path d="M309.077 78.4249H217.57V22.3027H309.077V78.4249ZM218.053 77.9426H308.595V22.785H218.053V77.9426Z" fill="#AAA4FC"/>
<path d="M234.501 60.4648H229.269V70.0726H234.501V60.4648Z" fill="#D1D1FF"/>
<path d="M244.983 56.0859H239.751V70.0924H244.983V56.0859Z" fill="#D1D1FF"/>
<path d="M255.466 59.6738H250.234V70.0918H255.466V59.6738Z" fill="#D1D1FF"/>
<path d="M265.949 52.3438H260.717V70.0929H265.949V52.3438Z" fill="#D1D1FF"/>
<path d="M276.412 47.6562H271.181V70.0936H276.412V47.6562Z" fill="#D1D1FF"/>
<path d="M286.895 40.9609H281.664V70.0928H286.895V40.9609Z" fill="#D1D1FF"/>
<path d="M297.378 30.6387H292.146V70.0728H297.378V30.6387Z" fill="#D1D1FF"/>
<path d="M233.439 35.3262H229.269V40.0336H233.439V35.3262Z" fill="#D1D1FF"/>
<path d="M268.073 37.5059H239.868V38.7213H268.073V37.5059Z" fill="#D1D1FF"/>
<path d="M226.934 106.379L221.161 90.4629C214.655 92.8166 210.003 99.0481 210.003 106.379C210.003 115.717 217.59 123.299 226.934 123.299C236.277 123.299 243.864 115.717 243.864 106.379C243.864 103.563 243.169 100.919 241.953 98.5851L226.934 106.379Z" fill="#EBEBFF"/>
<path d="M244.212 92.5473C241.393 87.1261 235.717 83.4219 229.192 83.4219C227.165 83.4219 225.235 83.7691 223.42 84.4251L229.192 100.342L244.212 92.5473Z" fill="#AAA4FC"/>
<path d="M250.91 160.611H210.852V198.714H250.91V160.611Z" fill="#EBEBFF"/>
<path d="M239.578 170.74H217.126V172.342H239.578V170.74Z" fill="white"/>
<path d="M239.578 175.562H217.126V177.164H239.578V175.562Z" fill="white"/>
<path d="M97.9932 87.7812H63.1665V146.624H97.9932V87.7812Z" fill="#EBEBFF"/>
<path d="M91.3137 96.2891H68.4756V117.183H91.3137V96.2891Z" fill="white"/>
<path d="M91.4725 117.009L68.6323 96.1113L68.3064 96.4671L91.1466 117.364L91.4725 117.009Z" fill="#EBEBFF"/>
<path d="M91.4719 96.4709L91.146 96.1152L68.3088 117.013L68.6347 117.368L91.4719 96.4709Z" fill="#EBEBFF"/>
<path d="M79.9042 111.803H0.231445V164.259H79.9042V111.803Z" fill="white"/>
<path d="M80.1361 164.509H0V111.57H80.1361V164.509ZM0.463326 164.046H79.6728V112.033H0.463326V164.046Z" fill="#AAA4FC"/>
<path d="M8.62939 151.603L13.7646 141.956L24.3825 151.931L31.4675 131.346L44.653 145.815L53.3404 142.284L69.1128 121.699" fill="white"/>
<path d="M24.4983 152.355L13.8418 142.342L8.84171 151.719L8.41699 151.487L13.7066 141.571L24.2859 151.487L31.3709 130.883L44.7302 145.526L53.2052 142.072L68.9197 121.545L69.3058 121.854L53.4948 142.477L44.595 146.104L44.4792 145.969L31.564 131.809L24.4983 152.355Z" fill="#AAA4FC"/>
<path d="M13.8223 143.25C14.558 143.25 15.1544 142.654 15.1544 141.919C15.1544 141.184 14.558 140.588 13.8223 140.588C13.0866 140.588 12.4902 141.184 12.4902 141.919C12.4902 142.654 13.0866 143.25 13.8223 143.25Z" fill="#AAA4FC"/>
<path d="M24.3052 153.01C25.0409 153.01 25.6373 152.414 25.6373 151.679C25.6373 150.944 25.0409 150.348 24.3052 150.348C23.5695 150.348 22.9731 150.944 22.9731 151.679C22.9731 152.414 23.5695 153.01 24.3052 153.01Z" fill="#AAA4FC"/>
<path d="M31.545 132.754C32.2806 132.754 32.877 132.158 32.877 131.423C32.877 130.688 32.2806 130.092 31.545 130.092C30.8093 130.092 30.2129 130.688 30.2129 131.423C30.2129 132.158 30.8093 132.754 31.545 132.754Z" fill="#AAA4FC"/>
<path d="M56.9507 120.176H23.1665V120.658H56.9507V120.176Z" fill="#AAA4FC"/>
<path d="M189.674 238.611C188.246 229.254 190.215 219.415 195.118 211.331C200.022 203.248 207.84 196.958 216.817 193.91C211.74 197.46 208.651 203.19 206.489 208.997C204.327 214.804 202.918 220.881 200.234 226.476C197.57 232.071 193.361 237.28 187.531 239.364L189.674 238.611Z" fill="#AAA4FC"/>
<path d="M188.265 238.688C188.072 227.885 185.967 217.1 182.087 207.01C180.716 203.422 179.056 199.852 176.373 197.094C173.689 194.354 169.79 192.541 166.006 193.216C170.716 196.746 173.149 202.534 174.539 208.245C175.909 213.955 176.45 219.897 178.381 225.454C180.311 231.01 184.018 236.354 189.558 238.341L188.265 238.688Z" fill="#AAA4FC"/>
<path d="M187.531 239.403C184.848 232.149 181.913 224.721 176.489 219.203C171.064 213.686 162.492 210.522 155.407 213.608C161.141 214.901 166.411 218.239 170.06 222.85C172.724 226.245 174.519 230.258 177.28 233.596C180.021 236.933 184.211 239.615 188.458 238.824L187.531 239.403Z" fill="#D1D1FF"/>
<path d="M186.663 238.9C185.562 230.951 184.462 222.868 185.62 214.919C186.778 206.971 190.543 199.042 197.28 194.662C193.555 198.308 192.3 203.845 192.3 209.074C192.3 214.283 193.361 219.472 193.439 224.681C193.516 229.89 192.493 235.447 188.96 239.286L186.663 238.9Z" fill="#D1D1FF"/>
<path d="M190.388 237.743C192.975 231.165 195.716 224.354 200.987 219.628C204.365 216.599 208.67 214.612 213.149 213.994C210.002 216.502 208.014 220.187 206.392 223.872C204.771 227.557 203.342 231.396 200.967 234.657C198.593 237.917 195.041 240.599 191.006 240.772L190.388 237.743Z" fill="#D1D1FF"/>
<path d="M203.496 257.752H174.5L170.04 235.469H207.975L203.496 257.752Z" fill="white"/>
<path d="M203.689 258.002H174.307L169.731 235.236H208.245L203.689 258.002ZM174.712 257.519H203.303L207.686 235.719H170.33L174.712 257.519Z" fill="#AAA4FC"/>
<path d="M122.048 178.686H88.4761V180.943H122.048V178.686Z" fill="#AAA4FC"/>
<path d="M122.048 178.688H93.6885L104.422 152.527H132.782L122.048 178.688Z" fill="white"/>
<path d="M122.202 178.938H93.3218L104.268 152.295H133.149L122.202 178.938ZM94.0554 178.456H121.894L132.434 152.777H104.596L94.0554 178.456Z" fill="#AAA4FC"/>
<path d="M119.596 176.488H97.3179L105.754 155.922H128.033L119.596 176.488Z" fill="#EBEBFF"/>
<path d="M110.755 181.678H110.272V257.883H110.755V181.678Z" fill="#1B1B43"/>
<path d="M137.608 180.945H83.4375V185.248H137.608V180.945Z" fill="#D1D1FF"/>
<path d="M39.7302 213.682H39.2476V257.881H39.7302V213.682Z" fill="#1B1B43"/>
<path d="M52.7226 215.728H26.2358C26.7957 213.046 29.1702 211.117 31.9116 211.117H47.0469C49.7882 211.117 52.1628 213.046 52.7226 215.728Z" fill="#D1D1FF"/>
<path d="M46.3518 257.748H32.6064C32.6064 256.069 33.9578 254.719 35.6374 254.719H43.3402C45.0004 254.719 46.3518 256.069 46.3518 257.748Z" fill="#D1D1FF"/>
<path d="M303.266 257.518H10.3091V258H303.266V257.518Z" fill="#1B1B43"/>
</g>
<defs>
<clipPath id="clip0">
<rect width="319" height="258" fill="white"/>
</clipPath>
</defs>
</svg>
