<svg width="168" height="47" viewBox="0 0 168 47" fill="none" xmlns="http://www.w3.org/2000/svg">
<rect width="52.2222" height="20.8889" rx="10.4444" fill="white"/>
<path d="M13.6962 8.32266V13.2227H13.0032V8.93166H11.8972V8.32266H13.6962ZM15.23 13.2647C15.0994 13.2647 14.9874 13.2203 14.894 13.1317C14.8007 13.0383 14.754 12.9217 14.754 12.7817C14.754 12.6463 14.8007 12.5343 14.894 12.4457C14.9874 12.3523 15.0994 12.3057 15.23 12.3057C15.3607 12.3057 15.4704 12.35 15.559 12.4387C15.6477 12.5273 15.692 12.6417 15.692 12.7817C15.692 12.9217 15.6454 13.0383 15.552 13.1317C15.4634 13.2203 15.356 13.2647 15.23 13.2647ZM22.8888 8.32266L20.7398 13.2227H20.0468L17.8908 8.32266H18.6468L20.4108 12.3477L22.1888 8.32266H22.8888ZM23.4225 9.51266H24.0945V13.2227H23.4225V9.51266ZM23.7585 8.79866C23.6279 8.79866 23.5182 8.75666 23.4295 8.67266C23.3455 8.58866 23.3035 8.48599 23.3035 8.36466C23.3035 8.24332 23.3455 8.14066 23.4295 8.05666C23.5182 7.96799 23.6279 7.92366 23.7585 7.92366C23.8892 7.92366 23.9965 7.96566 24.0805 8.04966C24.1692 8.12899 24.2135 8.22932 24.2135 8.35066C24.2135 8.47666 24.1692 8.58399 24.0805 8.67266C23.9965 8.75666 23.8892 8.79866 23.7585 8.79866ZM26.9666 13.2647C26.598 13.2647 26.2666 13.183 25.9726 13.0197C25.6786 12.8563 25.4476 12.6323 25.2796 12.3477C25.1163 12.0583 25.0346 11.7317 25.0346 11.3677C25.0346 11.0037 25.1163 10.6793 25.2796 10.3947C25.4476 10.1053 25.6786 9.88132 25.9726 9.72266C26.2666 9.55932 26.598 9.47766 26.9666 9.47766C27.3353 9.47766 27.6643 9.55932 27.9536 9.72266C28.2476 9.88132 28.4763 10.1053 28.6396 10.3947C28.8076 10.6793 28.8916 11.0037 28.8916 11.3677C28.8916 11.7317 28.8076 12.0583 28.6396 12.3477C28.4763 12.6323 28.2476 12.8563 27.9536 13.0197C27.6643 13.183 27.3353 13.2647 26.9666 13.2647ZM26.9666 12.6767C27.2046 12.6767 27.417 12.623 27.6036 12.5157C27.795 12.4037 27.9443 12.2497 28.0516 12.0537C28.159 11.853 28.2126 11.6243 28.2126 11.3677C28.2126 11.111 28.159 10.8847 28.0516 10.6887C27.9443 10.488 27.795 10.334 27.6036 10.2267C27.417 10.1193 27.2046 10.0657 26.9666 10.0657C26.7286 10.0657 26.514 10.1193 26.3226 10.2267C26.136 10.334 25.9866 10.488 25.8746 10.6887C25.7673 10.8847 25.7136 11.111 25.7136 11.3677C25.7136 11.6243 25.7673 11.853 25.8746 12.0537C25.9866 12.2497 26.136 12.4037 26.3226 12.5157C26.514 12.623 26.7286 12.6767 26.9666 12.6767ZM29.821 8.02866H30.493V13.2227H29.821V8.02866ZM31.7761 9.51266H32.4481V13.2227H31.7761V9.51266ZM32.1121 8.79866C31.9814 8.79866 31.8717 8.75666 31.7831 8.67266C31.6991 8.58866 31.6571 8.48599 31.6571 8.36466C31.6571 8.24332 31.6991 8.14066 31.7831 8.05666C31.8717 7.96799 31.9814 7.92366 32.1121 7.92366C32.2427 7.92366 32.3501 7.96566 32.4341 8.04966C32.5227 8.12899 32.5671 8.22932 32.5671 8.35066C32.5671 8.47666 32.5227 8.58399 32.4341 8.67266C32.3501 8.75666 32.2427 8.79866 32.1121 8.79866ZM35.7121 9.47766C36.1835 9.47766 36.5568 9.61532 36.8321 9.89066C37.1121 10.1613 37.2521 10.5603 37.2521 11.0877V13.2227H36.5801V11.1647C36.5801 10.8053 36.4938 10.5347 36.3211 10.3527C36.1485 10.1707 35.9011 10.0797 35.5791 10.0797C35.2151 10.0797 34.9281 10.187 34.7181 10.4017C34.5081 10.6117 34.4031 10.915 34.4031 11.3117V13.2227H33.7311V9.51266H34.3751V10.0727C34.5105 9.88132 34.6925 9.73432 34.9211 9.63166C35.1545 9.52899 35.4181 9.47766 35.7121 9.47766Z" fill="#706FD3"/>
<rect x="114.889" width="52.2222" height="20.8889" rx="10.4444" fill="white"/>
<path d="M125.331 10.3807C125.812 10.4273 126.178 10.5767 126.43 10.8287C126.682 11.076 126.808 11.3933 126.808 11.7807C126.808 12.0607 126.738 12.315 126.598 12.5437C126.458 12.7677 126.248 12.9473 125.968 13.0827C125.693 13.2133 125.355 13.2787 124.953 13.2787C124.603 13.2787 124.267 13.2273 123.945 13.1247C123.623 13.0173 123.36 12.8703 123.154 12.6837L123.476 12.1307C123.644 12.2893 123.859 12.4177 124.12 12.5157C124.382 12.609 124.659 12.6557 124.953 12.6557C125.317 12.6557 125.6 12.5787 125.8 12.4247C126.006 12.2707 126.108 12.0583 126.108 11.7877C126.108 11.517 126.008 11.307 125.807 11.1577C125.607 11.0083 125.303 10.9337 124.897 10.9337H124.505V10.4437L125.737 8.93166H123.378V8.32266H126.612V8.79866L125.331 10.3807ZM127.923 13.2647C127.793 13.2647 127.681 13.2203 127.587 13.1317C127.494 13.0383 127.447 12.9217 127.447 12.7817C127.447 12.6463 127.494 12.5343 127.587 12.4457C127.681 12.3523 127.793 12.3057 127.923 12.3057C128.054 12.3057 128.164 12.35 128.252 12.4387C128.341 12.5273 128.385 12.6417 128.385 12.7817C128.385 12.9217 128.339 13.0383 128.245 13.1317C128.157 13.2203 128.049 13.2647 127.923 13.2647ZM135.54 8.32266V13.2227H134.84V11.0387H132.026V13.2227H131.326V8.32266H132.026V10.4297H134.84V8.32266H135.54ZM136.909 9.51266H137.581V13.2227H136.909V9.51266ZM137.245 8.79866C137.114 8.79866 137.004 8.75666 136.916 8.67266C136.832 8.58866 136.79 8.48599 136.79 8.36466C136.79 8.24332 136.832 8.14066 136.916 8.05666C137.004 7.96799 137.114 7.92366 137.245 7.92366C137.375 7.92366 137.483 7.96566 137.567 8.04966C137.655 8.12899 137.7 8.22932 137.7 8.35066C137.7 8.47666 137.655 8.58399 137.567 8.67266C137.483 8.75666 137.375 8.79866 137.245 8.79866ZM139.928 13.2647C139.625 13.2647 139.333 13.225 139.053 13.1457C138.773 13.0617 138.554 12.9567 138.395 12.8307L138.675 12.2987C138.838 12.4153 139.037 12.5087 139.27 12.5787C139.503 12.6487 139.739 12.6837 139.977 12.6837C140.565 12.6837 140.859 12.5157 140.859 12.1797C140.859 12.0677 140.819 11.979 140.74 11.9137C140.661 11.8483 140.56 11.8017 140.439 11.7737C140.322 11.741 140.154 11.706 139.935 11.6687C139.636 11.622 139.391 11.5683 139.2 11.5077C139.013 11.447 138.852 11.3443 138.717 11.1997C138.582 11.055 138.514 10.852 138.514 10.5907C138.514 10.2547 138.654 9.98632 138.934 9.78566C139.214 9.58032 139.59 9.47766 140.061 9.47766C140.308 9.47766 140.556 9.50799 140.803 9.56866C141.05 9.62932 141.253 9.71099 141.412 9.81366L141.125 10.3457C140.822 10.1497 140.465 10.0517 140.054 10.0517C139.769 10.0517 139.552 10.0983 139.403 10.1917C139.254 10.285 139.179 10.4087 139.179 10.5627C139.179 10.684 139.221 10.7797 139.305 10.8497C139.389 10.9197 139.492 10.971 139.613 11.0037C139.739 11.0363 139.914 11.0737 140.138 11.1157C140.437 11.167 140.677 11.223 140.859 11.2837C141.046 11.3397 141.204 11.4377 141.335 11.5777C141.466 11.7177 141.531 11.9137 141.531 12.1657C141.531 12.5017 141.386 12.77 141.097 12.9707C140.812 13.1667 140.423 13.2647 139.928 13.2647ZM144.457 13.0057C144.359 13.0897 144.237 13.155 144.093 13.2017C143.948 13.2437 143.799 13.2647 143.645 13.2647C143.271 13.2647 142.982 13.1643 142.777 12.9637C142.571 12.763 142.469 12.476 142.469 12.1027V10.0657H141.839V9.51266H142.469V8.70066H143.141V9.51266H144.205V10.0657H143.141V12.0747C143.141 12.2753 143.19 12.4293 143.288 12.5367C143.39 12.644 143.535 12.6977 143.722 12.6977C143.927 12.6977 144.102 12.6393 144.247 12.5227L144.457 13.0057ZM146.735 13.2647C146.366 13.2647 146.035 13.183 145.741 13.0197C145.447 12.8563 145.216 12.6323 145.048 12.3477C144.885 12.0583 144.803 11.7317 144.803 11.3677C144.803 11.0037 144.885 10.6793 145.048 10.3947C145.216 10.1053 145.447 9.88132 145.741 9.72266C146.035 9.55932 146.366 9.47766 146.735 9.47766C147.104 9.47766 147.433 9.55932 147.722 9.72266C148.016 9.88132 148.245 10.1053 148.408 10.3947C148.576 10.6793 148.66 11.0037 148.66 11.3677C148.66 11.7317 148.576 12.0583 148.408 12.3477C148.245 12.6323 148.016 12.8563 147.722 13.0197C147.433 13.183 147.104 13.2647 146.735 13.2647ZM146.735 12.6767C146.973 12.6767 147.185 12.623 147.372 12.5157C147.563 12.4037 147.713 12.2497 147.82 12.0537C147.927 11.853 147.981 11.6243 147.981 11.3677C147.981 11.111 147.927 10.8847 147.82 10.6887C147.713 10.488 147.563 10.334 147.372 10.2267C147.185 10.1193 146.973 10.0657 146.735 10.0657C146.497 10.0657 146.282 10.1193 146.091 10.2267C145.904 10.334 145.755 10.488 145.643 10.6887C145.536 10.8847 145.482 11.111 145.482 11.3677C145.482 11.6243 145.536 11.853 145.643 12.0537C145.755 12.2497 145.904 12.4037 146.091 12.5157C146.282 12.623 146.497 12.6767 146.735 12.6767ZM150.233 10.1357C150.35 9.92099 150.523 9.75766 150.751 9.64566C150.98 9.53366 151.258 9.47766 151.584 9.47766V10.1287C151.547 10.124 151.496 10.1217 151.43 10.1217C151.066 10.1217 150.779 10.2313 150.569 10.4507C150.364 10.6653 150.261 10.9733 150.261 11.3747V13.2227H149.589V9.51266H150.233V10.1357ZM155.846 9.51266L154.047 13.5937C153.888 13.9717 153.702 14.2377 153.487 14.3917C153.277 14.5457 153.023 14.6227 152.724 14.6227C152.542 14.6227 152.365 14.5923 152.192 14.5317C152.024 14.4757 151.884 14.3917 151.772 14.2797L152.059 13.7757C152.25 13.9577 152.472 14.0487 152.724 14.0487C152.887 14.0487 153.023 14.0043 153.13 13.9157C153.242 13.8317 153.342 13.6847 153.431 13.4747L153.55 13.2157L151.912 9.51266H152.612L153.907 12.4807L155.188 9.51266H155.846Z" fill="#706FD3"/>
<rect y="26.1113" width="52.2222" height="20.8889" rx="10.4444" fill="white"/>
<path d="M15.8715 38.13H14.9405V39.334H14.2615V38.13H11.5385V37.64L14.0445 34.434H14.8005L12.3995 37.528H14.2825V36.464H14.9405V37.528H15.8715V38.13ZM16.8898 39.376C16.7592 39.376 16.6472 39.3317 16.5538 39.243C16.4605 39.1497 16.4138 39.033 16.4138 38.893C16.4138 38.7577 16.4605 38.6457 16.5538 38.557C16.6472 38.4637 16.7592 38.417 16.8898 38.417C17.0205 38.417 17.1302 38.4613 17.2188 38.55C17.3075 38.6387 17.3518 38.753 17.3518 38.893C17.3518 39.033 17.3052 39.1497 17.2118 39.243C17.1232 39.3317 17.0158 39.376 16.8898 39.376ZM21.7206 39.39C21.352 39.39 20.995 39.334 20.6496 39.222C20.309 39.1053 20.0406 38.956 19.8446 38.774L20.1036 38.228C20.2903 38.396 20.5283 38.5337 20.8176 38.641C21.1116 38.7437 21.4126 38.795 21.7206 38.795C22.1266 38.795 22.43 38.7273 22.6306 38.592C22.8313 38.452 22.9316 38.2677 22.9316 38.039C22.9316 37.871 22.8756 37.7357 22.7636 37.633C22.6563 37.5257 22.521 37.444 22.3576 37.388C22.199 37.332 21.9726 37.269 21.6786 37.199C21.31 37.1103 21.0113 37.0217 20.7826 36.933C20.5586 36.8443 20.365 36.709 20.2016 36.527C20.043 36.3403 19.9636 36.0907 19.9636 35.778C19.9636 35.5167 20.0313 35.281 20.1666 35.071C20.3066 34.861 20.5166 34.693 20.7966 34.567C21.0766 34.441 21.4243 34.378 21.8396 34.378C22.129 34.378 22.4136 34.4153 22.6936 34.49C22.9736 34.5647 23.214 34.672 23.4146 34.812L23.1836 35.372C22.9783 35.2413 22.759 35.1433 22.5256 35.078C22.2923 35.008 22.0636 34.973 21.8396 34.973C21.443 34.973 21.1443 35.0453 20.9436 35.19C20.7476 35.3347 20.6496 35.5213 20.6496 35.75C20.6496 35.918 20.7056 36.0557 20.8176 36.163C20.9296 36.2657 21.0673 36.3473 21.2306 36.408C21.3986 36.464 21.625 36.5247 21.9096 36.59C22.2783 36.6787 22.5746 36.7673 22.7986 36.856C23.0226 36.9447 23.214 37.08 23.3726 37.262C23.536 37.444 23.6176 37.689 23.6176 37.997C23.6176 38.2537 23.5476 38.4893 23.4076 38.704C23.2676 38.914 23.0553 39.082 22.7706 39.208C22.486 39.3293 22.136 39.39 21.7206 39.39ZM26.5233 35.589C26.9946 35.589 27.368 35.7267 27.6433 36.002C27.9233 36.2727 28.0633 36.6717 28.0633 37.199V39.334H27.3913V37.276C27.3913 36.9167 27.305 36.646 27.1323 36.464C26.9596 36.282 26.7123 36.191 26.3903 36.191C26.0263 36.191 25.7393 36.2983 25.5293 36.513C25.3193 36.723 25.2143 37.0263 25.2143 37.423V39.334H24.5423V34.14H25.2143V36.149C25.3543 35.9717 25.5363 35.834 25.7603 35.736C25.989 35.638 26.2433 35.589 26.5233 35.589ZM30.9165 39.376C30.5478 39.376 30.2165 39.2943 29.9225 39.131C29.6285 38.9677 29.3975 38.7437 29.2295 38.459C29.0661 38.1697 28.9845 37.843 28.9845 37.479C28.9845 37.115 29.0661 36.7907 29.2295 36.506C29.3975 36.2167 29.6285 35.9927 29.9225 35.834C30.2165 35.6707 30.5478 35.589 30.9165 35.589C31.2851 35.589 31.6141 35.6707 31.9035 35.834C32.1975 35.9927 32.4261 36.2167 32.5895 36.506C32.7575 36.7907 32.8415 37.115 32.8415 37.479C32.8415 37.843 32.7575 38.1697 32.5895 38.459C32.4261 38.7437 32.1975 38.9677 31.9035 39.131C31.6141 39.2943 31.2851 39.376 30.9165 39.376ZM30.9165 38.788C31.1545 38.788 31.3668 38.7343 31.5535 38.627C31.7448 38.515 31.8941 38.361 32.0015 38.165C32.1088 37.9643 32.1625 37.7357 32.1625 37.479C32.1625 37.2223 32.1088 36.996 32.0015 36.8C31.8941 36.5993 31.7448 36.4453 31.5535 36.338C31.3668 36.2307 31.1545 36.177 30.9165 36.177C30.6785 36.177 30.4638 36.2307 30.2725 36.338C30.0858 36.4453 29.9365 36.5993 29.8245 36.8C29.7171 36.996 29.6635 37.2223 29.6635 37.479C29.6635 37.7357 29.7171 37.9643 29.8245 38.165C29.9365 38.361 30.0858 38.515 30.2725 38.627C30.4638 38.7343 30.6785 38.788 30.9165 38.788ZM35.7378 35.589C36.0971 35.589 36.4191 35.6683 36.7038 35.827C36.9885 35.9857 37.2101 36.2073 37.3688 36.492C37.5321 36.7767 37.6138 37.1057 37.6138 37.479C37.6138 37.8523 37.5321 38.1837 37.3688 38.473C37.2101 38.7577 36.9885 38.9793 36.7038 39.138C36.4191 39.2967 36.0971 39.376 35.7378 39.376C35.4718 39.376 35.2268 39.3247 35.0028 39.222C34.7835 39.1193 34.5968 38.97 34.4428 38.774V40.692H33.7708V35.624H34.4148V36.212C34.5641 36.0067 34.7531 35.8527 34.9818 35.75C35.2105 35.6427 35.4625 35.589 35.7378 35.589ZM35.6818 38.788C35.9198 38.788 36.1321 38.7343 36.3188 38.627C36.5101 38.515 36.6595 38.361 36.7668 38.165C36.8788 37.9643 36.9348 37.7357 36.9348 37.479C36.9348 37.2223 36.8788 36.996 36.7668 36.8C36.6595 36.5993 36.5101 36.4453 36.3188 36.338C36.1321 36.2307 35.9198 36.177 35.6818 36.177C35.4485 36.177 35.2361 36.233 35.0448 36.345C34.8581 36.4523 34.7088 36.604 34.5968 36.8C34.4895 36.996 34.4358 37.2223 34.4358 37.479C34.4358 37.7357 34.4895 37.9643 34.5968 38.165C34.7041 38.361 34.8535 38.515 35.0448 38.627C35.2361 38.7343 35.4485 38.788 35.6818 38.788Z" fill="#706FD3"/>
<rect x="114.889" y="26.1113" width="52.2222" height="20.8889" rx="10.4444" fill="white"/>
<path d="M131.009 36.359C131.331 36.359 131.618 36.4197 131.87 36.541C132.126 36.6623 132.327 36.8373 132.472 37.066C132.616 37.29 132.689 37.549 132.689 37.843C132.689 38.151 132.612 38.4217 132.458 38.655C132.308 38.8883 132.101 39.0703 131.835 39.201C131.573 39.327 131.279 39.39 130.953 39.39C130.295 39.39 129.786 39.1777 129.427 38.753C129.072 38.3283 128.895 37.7263 128.895 36.947C128.895 36.401 128.99 35.9367 129.182 35.554C129.378 35.1667 129.648 34.875 129.994 34.679C130.344 34.4783 130.75 34.378 131.212 34.378C131.45 34.378 131.674 34.4037 131.884 34.455C132.094 34.5017 132.276 34.5717 132.43 34.665L132.164 35.211C131.93 35.057 131.618 34.98 131.226 34.98C130.717 34.98 130.318 35.1387 130.029 35.456C129.739 35.7687 129.595 36.226 129.595 36.828C129.595 36.9027 129.597 36.961 129.602 37.003C129.742 36.793 129.933 36.6343 130.176 36.527C130.423 36.415 130.701 36.359 131.009 36.359ZM130.925 38.823C131.247 38.823 131.508 38.7367 131.709 38.564C131.909 38.3913 132.01 38.1603 132.01 37.871C132.01 37.5817 131.907 37.353 131.702 37.185C131.501 37.0123 131.23 36.926 130.89 36.926C130.67 36.926 130.474 36.968 130.302 37.052C130.134 37.136 130.001 37.2503 129.903 37.395C129.809 37.5397 129.763 37.7007 129.763 37.878C129.763 38.0507 129.807 38.2093 129.896 38.354C129.989 38.494 130.122 38.6083 130.295 38.697C130.472 38.781 130.682 38.823 130.925 38.823ZM133.745 39.376C133.615 39.376 133.503 39.3317 133.409 39.243C133.316 39.1497 133.269 39.033 133.269 38.893C133.269 38.7577 133.316 38.6457 133.409 38.557C133.503 38.4637 133.615 38.417 133.745 38.417C133.876 38.417 133.986 38.4613 134.074 38.55C134.163 38.6387 134.207 38.753 134.207 38.893C134.207 39.033 134.161 39.1497 134.067 39.243C133.979 39.3317 133.871 39.376 133.745 39.376ZM144.071 34.434L142.433 39.334H141.698L140.361 35.421L139.024 39.334H138.275L136.637 34.434H137.358L138.681 38.417L140.06 34.434H140.704L142.055 38.438L143.406 34.434H144.071ZM144.836 35.624H145.508V39.334H144.836V35.624ZM145.172 34.91C145.042 34.91 144.932 34.868 144.843 34.784C144.759 34.7 144.717 34.5973 144.717 34.476C144.717 34.3547 144.759 34.252 144.843 34.168C144.932 34.0793 145.042 34.035 145.172 34.035C145.303 34.035 145.41 34.077 145.494 34.161C145.583 34.2403 145.627 34.3407 145.627 34.462C145.627 34.588 145.583 34.6953 145.494 34.784C145.41 34.868 145.303 34.91 145.172 34.91ZM148.772 35.589C149.244 35.589 149.617 35.7267 149.892 36.002C150.172 36.2727 150.312 36.6717 150.312 37.199V39.334H149.64V37.276C149.64 36.9167 149.554 36.646 149.381 36.464C149.209 36.282 148.961 36.191 148.639 36.191C148.275 36.191 147.988 36.2983 147.778 36.513C147.568 36.723 147.463 37.0263 147.463 37.423V39.334H146.791V35.624H147.435V36.184C147.571 35.9927 147.753 35.8457 147.981 35.743C148.215 35.6403 148.478 35.589 148.772 35.589Z" fill="#706FD3"/>
<path d="M84.3212 43.3826V45C80.3031 45 76.5415 42.8166 73.8057 38.854C71.1554 35.0533 69.6166 29.8777 69.6166 24.4596C69.6166 19.0414 71.0699 13.9467 73.8057 10.0651C76.6269 6.18343 80.3886 4 84.3212 4V5.61736C77.2254 5.61736 71.3264 14.1085 71.3264 24.4596C71.3264 34.8915 77.2254 43.3826 84.3212 43.3826ZM71.9249 9.49901H69.7021C69.5311 9.66075 69.3601 9.90335 69.1891 10.146C66.4534 13.9467 65 19.0414 65 24.4596C65 29.8777 66.4534 34.9724 69.1891 38.854C69.3601 39.0966 69.5311 39.3393 69.7021 39.501H71.9249C68.7617 36.0237 66.7953 30.6055 66.7953 24.4596C66.7098 18.3945 68.7617 12.8955 71.9249 9.49901ZM96.2902 31.3333H93.4689H92.443H91.6736C90.9896 33.355 90.0492 35.1341 88.8523 36.5089H90.9896C91.7591 35.4576 92.3575 34.2446 92.8705 32.9507H95.6062C93.7254 37.2367 90.3912 40.0671 86.6295 40.0671C80.7306 40.0671 75.943 33.1124 75.943 24.4596C75.943 15.8876 80.7306 8.85207 86.6295 8.85207C90.8187 8.85207 94.4948 12.4103 96.2047 17.5858H98C97.4016 15.645 96.5466 13.8659 95.5207 12.3294C93.2124 9.09467 90.0492 7.31558 86.6295 7.31558C83.2098 7.31558 80.0466 9.17554 77.7383 12.4911C75.4301 15.7258 74.2332 20.0118 74.2332 24.5404C74.2332 29.069 75.5155 33.355 77.7383 36.5897C80.0466 39.9053 83.2098 41.7653 86.6295 41.7653C90.0492 41.7653 93.2124 39.9053 95.5207 36.5897C96.6321 35.0533 97.487 33.2742 98 31.3333H96.9741H96.2902ZM91.6736 17.6667H92.1865H93.4689C92.8705 15.7258 92.0155 14.0276 90.9896 12.4911H88.8523C89.7073 13.5424 90.3912 14.6746 90.9896 16.0493H88.2539C87.7409 14.7554 87.057 13.5424 86.2876 12.4911C86.1166 12.2485 85.8601 11.925 85.6891 11.6824H83.4663C85.0052 13.2189 86.2021 15.2406 87.057 17.6667H87.5699H88.8523H91.6736ZM83.4663 37.3176H85.6891C85.8601 37.075 86.1166 36.8323 86.2876 36.5089C87.399 34.9724 88.2539 33.1933 88.7668 31.2525H86.9715C86.2021 33.7594 85.0052 35.8619 83.4663 37.3176Z" fill="#AAA4FC"/>
</svg>

