<svg width="45" height="45" viewBox="0 0 45 45" fill="none" xmlns="http://www.w3.org/2000/svg">
<g clip-path="url(#clip0)">
<path d="M38.417 6.58529C29.6379 -2.19198 15.3606 -2.19198 6.5815 6.58529C-2.19383 15.3626 -2.19383 29.6436 6.5815 38.4208C10.9711 42.8085 16.7356 45.0014 22.5002 45.0014C28.2649 45.0014 34.0275 42.8085 38.417 38.4208C47.1943 29.6436 47.1943 15.3626 38.417 6.58529ZM31.7839 29.1352C32.5173 29.8687 32.5173 31.0543 31.7839 31.7877C31.4181 32.1535 30.9379 32.3374 30.4576 32.3374C29.9774 32.3374 29.4972 32.1535 29.1314 31.7877L22.5002 25.1546L15.8708 31.7858C15.5032 32.1516 15.0229 32.3354 14.5445 32.3354C14.0643 32.3354 13.584 32.1516 13.2182 31.7858C12.4848 31.0523 12.4848 29.8649 13.2182 29.1333L19.8476 22.5021L13.2164 15.8709C12.483 15.1374 12.483 13.95 13.2164 13.2184C13.948 12.485 15.1354 12.485 15.8689 13.2184L22.5001 19.8496L29.1313 13.2184C29.8647 12.485 31.0503 12.485 31.7837 13.2184C32.5172 13.95 32.5172 15.1374 31.7837 15.8709L25.1525 22.5021L31.7839 29.1352Z" fill="#E14242"/>
</g>
<defs>
<clipPath id="clip0">
<rect width="45" height="45" fill="white"/>
</clipPath>
</defs>
</svg>
