<svg width="29" height="29" viewBox="0 0 29 29" fill="none" xmlns="http://www.w3.org/2000/svg">
<path d="M14.4871 2.41708C14.3282 2.41864 14.1712 2.45163 14.025 2.51422C13.8789 2.5768 13.7464 2.66775 13.6353 2.78181C13.5241 2.89587 13.4365 3.03089 13.3773 3.17902C13.3181 3.32715 13.2886 3.48549 13.2905 3.64508V13.3577C13.2906 13.6799 13.4181 13.9889 13.6449 14.2167C13.8717 14.4445 14.1794 14.5724 14.5001 14.5724C14.8209 14.5724 15.1285 14.4445 15.3553 14.2167C15.5822 13.9889 15.7097 13.6799 15.7097 13.3577V3.64508C15.7116 3.48329 15.6813 3.32273 15.6205 3.17289C15.5597 3.02305 15.4698 2.88688 15.3558 2.77247C15.2419 2.65806 15.1064 2.56773 14.9572 2.50669C14.808 2.44565 14.6482 2.41518 14.4871 2.41708ZM21.5372 4.85176C21.4979 4.85062 21.4585 4.85141 21.4192 4.85413C21.1803 4.8745 20.9528 4.96583 20.7657 5.11642C20.5786 5.26702 20.4403 5.47007 20.3684 5.69983C20.2966 5.9296 20.2944 6.17571 20.3621 6.40673C20.4299 6.63775 20.5645 6.8433 20.7489 6.99724C22.8422 8.78273 24.1665 11.4402 24.1665 14.4245C24.1665 19.813 19.8587 24.1561 14.506 24.1561C9.1533 24.1561 4.83603 19.813 4.83604 14.4245C4.83605 11.4575 6.14355 8.81804 8.21593 7.03278C8.33666 6.92927 8.43592 6.80284 8.50802 6.6608C8.58013 6.51876 8.62367 6.36386 8.63617 6.20492C8.64867 6.04597 8.62987 5.88619 8.58086 5.73454C8.53185 5.58289 8.45358 5.44243 8.35051 5.32116C8.24745 5.1999 8.12162 5.1002 7.9802 5.02778C7.83878 4.95537 7.68454 4.91155 7.5263 4.89901C7.36805 4.88646 7.20889 4.90538 7.05791 4.95461C6.90693 5.00385 6.76709 5.08245 6.64636 5.18597C4.05938 7.41454 2.41679 10.7363 2.41678 14.4245C2.41677 21.1228 7.84496 26.5837 14.506 26.5837C21.1671 26.5837 26.5835 21.1228 26.5834 14.4245C26.5834 10.7148 24.9246 7.37937 22.3114 5.15043C22.0965 4.96228 21.8223 4.85649 21.5372 4.85176H21.5372Z" fill="#E14242"/>
</svg>
