<svg width="32" height="32" viewBox="0 0 32 32" fill="none" xmlns="http://www.w3.org/2000/svg">
<path d="M28.5217 0.696289H3.47824C1.55967 0.696289 0 2.25733 0 4.17453V19.4789C0 21.3961 1.55967 22.9571 3.47824 22.9571H9.04343C9.42743 22.9571 9.7391 22.6455 9.7391 22.2615C9.7391 21.8775 9.42743 21.5658 9.04343 21.5658H3.47824C2.32761 21.5658 1.39128 20.6295 1.39128 19.4788V4.17453C1.39128 3.0239 2.32761 2.08757 3.47824 2.08757H28.5217C29.6723 2.08757 30.6087 3.0239 30.6087 4.17453V19.4789C30.6087 20.6295 29.6723 21.5658 28.5217 21.5658H22.9565C22.5725 21.5658 22.2608 21.8775 22.2608 22.2615C22.2608 22.6455 22.5725 22.9572 22.9565 22.9572H28.5217C30.4403 22.9572 31.9999 21.3961 31.9999 19.479V4.17453C32 2.25733 30.4403 0.696289 28.5217 0.696289Z" fill="#8E54E9"/>
<path d="M29.0866 3.76662C28.8599 3.45495 28.4258 3.38542 28.1155 3.61082L17.305 11.4174C16.5148 11.9892 15.4866 11.9892 14.6963 11.4174L3.8859 3.61082C3.57566 3.38679 3.14014 3.45358 2.91475 3.76662C2.68936 4.07829 2.75895 4.51375 3.07056 4.73914L13.881 12.5457C14.5154 13.0035 15.257 13.2316 16 13.2316C16.7429 13.2316 17.4845 13.002 18.1203 12.5443L28.9307 4.73777C29.241 4.51375 29.312 4.07829 29.0866 3.76662Z" fill="#8E54E9"/>
<path d="M10.9259 12.0306C10.6546 11.7593 10.2135 11.7593 9.94224 12.0306L2.9857 18.9872C2.7144 19.2585 2.7144 19.6995 2.9857 19.9708C3.12207 20.1058 3.30012 20.174 3.47823 20.174C3.65633 20.174 3.83438 20.1058 3.96938 19.9708L10.9259 13.0143C11.1972 12.743 11.1972 12.3019 10.9259 12.0306Z" fill="#8E54E9"/>
<path d="M29.0126 18.9872L22.056 12.0306C21.7847 11.7593 21.3437 11.7593 21.0724 12.0306C20.8011 12.3019 20.8011 12.743 21.0724 13.0143L28.0289 19.9708C28.1653 20.1058 28.3433 20.174 28.5214 20.174C28.6995 20.174 28.8776 20.1058 29.0126 19.9708C29.2839 19.6995 29.2839 19.2585 29.0126 18.9872Z" fill="#8E54E9"/>
<path d="M23.4477 18.9851L20.6651 16.2025C20.3938 15.9312 19.9527 15.9312 19.6814 16.2025L8.55105 27.333C8.42166 27.4637 8.3479 27.6405 8.3479 27.8255V30.6081C8.3479 30.9921 8.65957 31.3038 9.04357 31.3038H11.8262C12.0112 31.3038 12.188 31.23 12.3174 31.0993L23.4478 19.9688C23.719 19.6974 23.719 19.2564 23.4477 18.9851ZM11.5381 29.9124H9.73918V28.1135L20.174 17.6787L21.9729 19.4777L11.5381 29.9124Z" fill="#8E54E9"/>
<path d="M20.6651 21.7703L17.8825 18.9877C17.6112 18.7164 17.1701 18.7164 16.8988 18.9877C16.6275 19.259 16.6275 19.7 16.8988 19.9713L19.6814 22.754C19.8178 22.8889 19.9958 22.9571 20.1739 22.9571C20.3521 22.9571 20.5301 22.889 20.6651 22.754C20.9364 22.4826 20.9364 22.0416 20.6651 21.7703Z" fill="#8E54E9"/>
</svg>
