<svg width="27" height="7" viewBox="0 0 27 7" fill="none" xmlns="http://www.w3.org/2000/svg">
<path d="M11.6914 5.52148C11.1055 4.93555 10.8125 4.26172 10.8125 3.5C10.8125 2.73828 11.1055 2.09375 11.6914 1.56641C12.2188 0.980469 12.8633 0.6875 13.625 0.6875C14.3867 0.6875 15.0605 0.980469 15.6465 1.56641C16.1738 2.09375 16.4375 2.73828 16.4375 3.5C16.4375 4.26172 16.1738 4.93555 15.6465 5.52148C15.0605 6.04883 14.3867 6.3125 13.625 6.3125C12.8633 6.3125 12.2188 6.04883 11.6914 5.52148ZM5.09961 5.52148C4.51367 6.04883 3.83984 6.3125 3.07812 6.3125C2.31641 6.3125 1.67188 6.04883 1.14453 5.52148C0.558594 4.93555 0.265625 4.26172 0.265625 3.5C0.265625 2.73828 0.558594 2.09375 1.14453 1.56641C1.67188 0.980469 2.31641 0.6875 3.07812 0.6875C3.83984 0.6875 4.51367 0.980469 5.09961 1.56641C5.62695 2.09375 5.89062 2.73828 5.89062 3.5C5.89062 4.26172 5.62695 4.93555 5.09961 5.52148ZM26.1934 5.52148C25.6074 6.04883 24.9336 6.3125 24.1719 6.3125C23.4102 6.3125 22.7656 6.04883 22.2383 5.52148C21.6523 4.93555 21.3594 4.26172 21.3594 3.5C21.3594 2.73828 21.6523 2.09375 22.2383 1.56641C22.7656 0.980469 23.4102 0.6875 24.1719 0.6875C24.9336 0.6875 25.6074 0.980469 26.1934 1.56641C26.7207 2.09375 26.9844 2.73828 26.9844 3.5C26.9844 4.26172 26.7207 4.93555 26.1934 5.52148Z" fill="#D2CCFF"/>
</svg>
